{
    "KPlugin": {
        "Authors": [
            {
                "Email": "",
                "Name": ""
            }
        ],
        "Category": "",
        "Description": "Look up word meanings",
        "Description[ar]": "ابحث عن معاني الكلمات",
        "Description[az]": "Söz və tərcümələrin mənalarını göstərmək",
        "Description[be]": "Пошук значэнняў слоў",
        "Description[bg]": "Търсене значението на думи",
        "Description[ca@valencia]": "Busca els significats de paraules",
        "Description[ca]": "Cerca els significats de paraules",
        "Description[cs]": "Vyhledávání významu slov",
        "Description[da]": "Slå ords betydning op",
        "Description[de]": "Nachschlagen von Wortbedeutungen",
        "Description[en_GB]": "Look up word meanings",
        "Description[eo]": "Serĉi difinojn de vortoj",
        "Description[es]": "Buscar significado de las palabras",
        "Description[et]": "Sõna tähenduse otsimine",
        "Description[eu]": "Bilatu hitzen esanahiak",
        "Description[fi]": "Etsi sanojen merkityksiä",
        "Description[fr]": "Rechercher les sens des mots",
        "Description[hu]": "Értelmező szótár",
        "Description[ia]": "Cerca significato de parola",
        "Description[id]": "Cari arti kata",
        "Description[is]": "Fletta upp merkingu orða",
        "Description[it]": "Cerca i significati delle parole",
        "Description[ja]": "単語の意味を調べます",
        "Description[ka]": "სიყვის მნიშვნელობის მოძებნა",
        "Description[ko]": "단어의 뜻 찾기",
        "Description[lt]": "Žodžių reikšmių paieška",
        "Description[nl]": "Zoek de betekenis van woorden op",
        "Description[nn]": "Slå opp tydinga til ord",
        "Description[pa]": "ਸ਼ਬਦਾਂ ਦੇ ਅਰਥ ਖੋਜ",
        "Description[pl]": "Wyszukuje znaczenia słów",
        "Description[pt]": "Procurar os significados das palavras",
        "Description[pt_BR]": "Procurar os significados das palavras",
        "Description[ro]": "Caută înțelesul cuvintelor",
        "Description[ru]": "Показ значений слов или перевода",
        "Description[sk]": "Vyhľadávanie významov slov",
        "Description[sl]": "Poišči pomene besed",
        "Description[sv]": "Slå upp ords betydelse",
        "Description[ta]": "சொற்களின் பொருட்களை கண்டறிய உதவும்",
        "Description[tr]": "Sözcük anlamlarına bak",
        "Description[uk]": "Пошук значень слів",
        "Description[vi]": "Tra nghĩa của từ",
        "Description[x-test]": "xxLook up word meaningsxx",
        "Description[zh_CN]": "查询单词含义",
        "Description[zh_TW]": "查詢單字的定義",
        "Icon": "accessories-dictionary",
        "Id": "dict",
        "License": "",
        "Name": "Dictionary",
        "Name[ar]": "قاموس",
        "Name[as]": "অভিধান",
        "Name[az]": "Lüğət",
        "Name[be@latin]": "Słoŭnik",
        "Name[be]": "Слоўнік",
        "Name[bg]": "Речник",
        "Name[bn]": "অভিধান",
        "Name[bn_IN]": "অভিধান",
        "Name[bs]": "Rječnik",
        "Name[ca@valencia]": "Diccionari",
        "Name[ca]": "Diccionari",
        "Name[cs]": "Slovník",
        "Name[csb]": "Słowôrz",
        "Name[da]": "Ordbog",
        "Name[de]": "Wörterbuch",
        "Name[el]": "Λεξικό",
        "Name[en_GB]": "Dictionary",
        "Name[eo]": "Vortaro",
        "Name[es]": "Diccionario",
        "Name[et]": "Sõnaraamat",
        "Name[eu]": "Hiztegia",
        "Name[fa]": "واژه‌نامه",
        "Name[fi]": "Sanakirja",
        "Name[fr]": "Dictionnaire",
        "Name[fy]": "Wurdboek",
        "Name[ga]": "Foclóir",
        "Name[gl]": "Dicionario",
        "Name[gu]": "ડિક્શનરી",
        "Name[he]": "מילון",
        "Name[hi]": "शब्दकोश",
        "Name[hne]": "सब्दकोस",
        "Name[hr]": "Rječnik",
        "Name[hsb]": "Słownik",
        "Name[hu]": "Szótár",
        "Name[ia]": "Dictionario",
        "Name[id]": "Kamus",
        "Name[is]": "Orðabók",
        "Name[it]": "Dizionario",
        "Name[ja]": "辞書",
        "Name[ka]": "ლექსიკონი",
        "Name[kk]": "Сөздік",
        "Name[km]": "វចនានុក្រម",
        "Name[kn]": "ಶಬ್ದಕೋಶ ",
        "Name[ko]": "사전",
        "Name[ku]": "Ferheng",
        "Name[lt]": "Žodynas",
        "Name[lv]": "Vārdnīca",
        "Name[mai]": "शब्दकोश",
        "Name[mk]": "Речник",
        "Name[ml]": "നിഘണ്ടു",
        "Name[mr]": "माहितीकोष",
        "Name[nb]": "Ordbok",
        "Name[nds]": "Wöörbook",
        "Name[nl]": "Woordenboek",
        "Name[nn]": "Ordbok",
        "Name[or]": "ଅଭିଧାନ",
        "Name[pa]": "ਡਿਕਸ਼ਨਰੀ",
        "Name[pl]": "Słownik",
        "Name[pt]": "Dicionário",
        "Name[pt_BR]": "Dicionário",
        "Name[ro]": "Dicționar",
        "Name[ru]": "Словарь",
        "Name[si]": "ශබ්දකෝෂය",
        "Name[sk]": "Slovník",
        "Name[sl]": "Slovar",
        "Name[sr@ijekavian]": "рјечник",
        "Name[sr@ijekavianlatin]": "rječnik",
        "Name[sr@latin]": "rečnik",
        "Name[sr]": "речник",
        "Name[sv]": "Ordlista",
        "Name[ta]": "அகராதி",
        "Name[tg]": "Луғат",
        "Name[th]": "พจนานุกรม",
        "Name[tr]": "Sözlük",
        "Name[ug]": "لۇغەت",
        "Name[uk]": "Словник",
        "Name[vi]": "Từ điển",
        "Name[wa]": "Motî",
        "Name[x-test]": "xxDictionaryxx",
        "Name[zh_CN]": "词典",
        "Name[zh_TW]": "字典",
        "Website": "https://kde.org/plasma-desktop"
    }
}
