{
    "KPlugin": {
        "BugReportUrl": "https://bugs.kde.org/enter_bug.cgi?product=systemsettings&component=kcm_style",
        "Description": "Configure application style and behavior",
        "Description[ar]": "اضبط سلوك ونمط التطبيق",
        "Description[az]": "Tətbiq üslubu və davranışlarını tənzimləmək",
        "Description[be]": "Наладжванне стылю і паводзін праграм",
        "Description[bg]": "Конфигуриране на стила и поведението на приложение",
        "Description[ca@valencia]": "Configura l'estil i el comportament de les aplicacions",
        "Description[ca]": "Configura l'estil i el comportament de les aplicacions",
        "Description[cs]": "Nastavení stylu a chování oken",
        "Description[da]": "Indstil programmers stil og opførsel",
        "Description[de]": "Stil und Verhalten der Anwendungen einrichten",
        "Description[en_GB]": "Configure application style and behaviour",
        "Description[es]": "Configurar el estilo y el comportamiento de las aplicaciones",
        "Description[et]": "Rakenduste stiili ja käitumise seadistamine",
        "Description[eu]": "Konfiguratu aplikazioen estiloa eta jokabidea",
        "Description[fi]": "Aseta sovellustyyli ja toiminta",
        "Description[fr]": "Configurer le style et le comportement des applications",
        "Description[hu]": "Alkalmazások stílusának és működésének beállítása",
        "Description[ia]": "Configura stilo de application e comportamento",
        "Description[id]": "Konfigurasi perilaku dan gaya aplikasi",
        "Description[is]": "Stilla stíl forrita og hegðun",
        "Description[it]": "Configura stile e comportamento delle applicazioni",
        "Description[ja]": "アプリケーションスタイルと挙動を設定",
        "Description[ko]": "프로그램 스타일과 행동 설정",
        "Description[lt]": "Konfigūruoti programų stilių ir elgseną",
        "Description[nl]": "Toepassingstijl en gedrag configureren",
        "Description[nn]": "Set opp utsjånad og åtferd for program",
        "Description[pa]": "ਐਪਲੀਕੇਸ਼ਨ ਸਟਾਈਲ ਅਤੇ ਰਵੱਈਏ ਦੀ ਸੰਰਚਨਾ",
        "Description[pl]": "Ustawienia wyglądu i zachowania aplikacji",
        "Description[pt]": "Configurar o estilo e comportamento das aplicações",
        "Description[pt_BR]": "Configurar o estilo e comportamento do aplicativo",
        "Description[ro]": "Configurează stilul și comportamentul aplicațiilor",
        "Description[ru]": "Настройка внешнего вида и поведения приложений",
        "Description[sk]": "Nakonfigurovať štýl a správanie aplikácií",
        "Description[sl]": "Nastavi slog aplikacije in obnašanje",
        "Description[sv]": "Anpassa programstil och beteende",
        "Description[ta]": "செயலிகளின் தோற்றம் மற்றும் நடத்தையை அமையுங்கள்",
        "Description[tr]": "Uygulama biçemini ve davranışını yapılandırın",
        "Description[uk]": "Налаштовування стилю і поведінки вікон програм",
        "Description[vi]": "Cấu hình kiểu cách và ứng xử của ứng dụng",
        "Description[x-test]": "xxConfigure application style and behaviorxx",
        "Description[zh_CN]": "配置应用程序视觉风格和行为",
        "Description[zh_TW]": "設定應用程式風格與行為",
        "Icon": "preferences-desktop-theme-applications",
        "Name": "Application Style",
        "Name[ar]": "نمط التطبيق",
        "Name[az]": "Tətbiq Üslubu",
        "Name[be]": "Стыль праграм",
        "Name[bg]": "Стил на приложения",
        "Name[ca@valencia]": "Estil de l'aplicació",
        "Name[ca]": "Estil de l'aplicació",
        "Name[cs]": "Styl aplikací",
        "Name[da]": "Programstil",
        "Name[de]": "Anwendungs-Stil",
        "Name[en_GB]": "Application Style",
        "Name[eo]": "Aplikaĵa Stilo",
        "Name[es]": "Estilo de las aplicaciones",
        "Name[et]": "Rakenduste stiil",
        "Name[eu]": "Aplikazioaren estiloa",
        "Name[fi]": "Sovellustyyli",
        "Name[fr]": "Style d'applications",
        "Name[hi]": "अनुप्रयोग शैली",
        "Name[hu]": "Alkalmazásstílus",
        "Name[ia]": "Apparentia de application",
        "Name[id]": "Gaya Aplikasi",
        "Name[is]": "Stíll forrits",
        "Name[it]": "Stile delle applicazioni",
        "Name[ja]": "アプリケーションスタイル",
        "Name[ka]": "აპლიკაციის სტილი",
        "Name[ko]": "프로그램 스타일",
        "Name[lt]": "Programų stilius",
        "Name[ml]": "ആപ്ലിക്കേഷൻ ശൈലികൾ",
        "Name[nl]": "Stijl van toepassing",
        "Name[nn]": "Program­stil",
        "Name[pa]": "ਐਪਲੀਕੇਸ਼ਨ ਸਟਾਈਲ",
        "Name[pl]": "Wygląd aplikacji",
        "Name[pt]": "Estilo das Aplicações",
        "Name[pt_BR]": "Estilo do aplicativo",
        "Name[ro]": "Stil aplicații",
        "Name[ru]": "Оформление приложений",
        "Name[sk]": "Štýl aplikácií",
        "Name[sl]": "Slog aplikacije",
        "Name[sv]": "Programstil",
        "Name[ta]": "செயலி தோற்றம்",
        "Name[tg]": "Услуби барномавӣ",
        "Name[tr]": "Uygulama Biçemi",
        "Name[uk]": "Стиль вікон програм",
        "Name[vi]": "Kiểu cách ứng dụng",
        "Name[x-test]": "xxApplication Stylexx",
        "Name[zh_CN]": "应用程序风格",
        "Name[zh_TW]": "應用程式風格"
    },
    "X-DocPath": "kcontrol/kcmstyle/index.html",
    "X-KDE-Init-Phase": "0",
    "X-KDE-Init-Symbol": "kcminit_style",
    "X-KDE-Keywords": "style,styles,look,widget,icons,toolbars,text,highlight,apps,KDE applications,theme,plasma,menu,global menu,GTK,GNOME,application style,app,programs,appearance,skin,themes,light mode,dark mode",
    "X-KDE-Keywords[ar]": "نمط,أنماط,مظهر,قطعة,أيقونة,أشرطة أدوات,نص,تمييز,تطبيقات,تطبيقات كدي,سمة,بلازما,قائمة,قائمة عالمية,GTK,جنوم,نمط التطبيق,التطبيق,البرامج,المظهر ,الجلد,السمات,الوضع الفاتح,الوضع الداكن",
    "X-KDE-Keywords[az]": "style,styles,look,widget,icons,toolbars,text,highlight,apps,KDE applications,theme,plasma,menu,global menu,GTK,GNOME,application style,app,programs,appearance,skin,themes,light mode,dark mode,üslub,növ,baxmaq,vidjet,ikonlar,alətlər çubuğu,mətn,işıqlanan,tətbiqlər,KDE tətbiqləri,mövzu,menyu,qlobal menyu,tətəbiq tərzi,tətbiq,proqramlar,görünüş,örtük,mövzular,işıqlı rejim,qaranlıq rejim",
    "X-KDE-Keywords[ca]": "estil,estils,aspecte,giny,icones,barres d'eines,text,ressaltat,apps,aplicacions,aplicacions KDE,tema,plasma,menu,menu global,GTK,GNOME,estil d'aplicacions,app,aplicació,programes,aparença,pell,temes,mode clar,mode fosc",
    "X-KDE-Keywords[cs]": "styl,styly,vzhled,widget,ikony,panely nástrojů,text,zvýraznění,aplikace,aplikace KDE,motiv,plasma,nabídka,globální nabídka,GTK,GNOME,styl aplikací,appka,programy,vzhled,styl,motivy,světlý režim,tmavý režim",
    "X-KDE-Keywords[en_GB]": "style,styles,look,widget,icons,toolbars,text,highlight,apps,KDE applications,theme,plasma,menu,global menu,GTK,GNOME,application style,app,programs,appearance,skin,themes,light mode,dark mode",
    "X-KDE-Keywords[es]": "estilo,estilos,apariencia,controles,iconos,barras de herramientas,texto,resaltado,aplicaciones,aplicaciones de KDE,tema,plasma,menú,menú global,GTK,GNOME,estilo de las aplicaciones,app,programas,aspecto,piel,temas,modo claro,modo oscuro",
    "X-KDE-Keywords[eu]": "estiloa,estiloak,itxura,trepeta,ikonoak,tresna-barrak,testua,nabarmentzea,aplikazioak,KDE aplikazioak,gaia,plasma,menua,menu orokorra,GTK,GNOME,aplikazio estiloa,aplikazioa,programak,itxura,azala,gaiak,modu argia, modu iluna",
    "X-KDE-Keywords[fi]": "tyyli,tyylit,ulkoasu,alkio,kuvakkeet,työkalurivit,teksti,korostus,sovellukset,KDE-sovellukset,teema,teemat,Plasma,valikko,yleisvalikko,GTK,GNOME,sovellustyyli,ohjelmat,vaalea tila,tumma tila",
    "X-KDE-Keywords[fr]": "style, styles, apparence, composant graphique, icônes, barres d'outils, texte, surlignement, applications, applications KDE, thème, plasma, menu, menu global, GTK, GNOME, style d'applications, programmes, apparence, habillage, thème, mode clair, mode sombre",
    "X-KDE-Keywords[hi]": "शैली,शैलीयाँ,रूप,विजेट,प्रतीक,साधनपट्टी,पाठ्य,चिन्हांकित,ऐप्स,केडीई अनुप्रयोग,प्रसंग,प्लाज़्मा,मेनू,वैश्विक मेनू,जीटीके,गनोम,अनुप्रयोग शैली, ऐप, प्रोग्राम, उपस्थिति, त्वचा, थीम, लाइट मोड, डार्क मोड",
    "X-KDE-Keywords[hu]": "stílus,stílusok,megjelenés,widget,ikonok,eszköztáratk,szöveg,kiemelés,alkalmazások,KDE alkalmazások,téma,plasma,menü,globális menü,GTK,GNOME,alkalamzásstílus,alkalmazás,programok,megjelenés,felület,témák,világos mód,sötét mód",
    "X-KDE-Keywords[ia]": "stilo,stilos,apparentia,widget,icones,barras de instrumento,texto,evidentia,apps,applicationes  de KDE,thema,plasma,menu,menu global,GTK,GNOME,stilo de application,app,programmas,apparentia,apparentia,themas,modo clar,modo obscur",
    "X-KDE-Keywords[it]": "stile,stili,aspetto,oggetto,icone,barre degli strumenti,testo,evidenziazione,applicazioni,applicazioni KDE,tema,plasma,menu,menu globale,GTK,GNOME,stile applicazione,applicazione,programmi,aspetto,skin,temi,modalità chiara,modalità scura",
    "X-KDE-Keywords[ko]": "style,styles,look,widget,icons,toolbars,text,highlight,apps,KDE applications,theme,plasma,menu,global menu,GTK,GNOME,application style,app,programs,appearance,skin,themes,light mode,dark mode,스타일,모양,위젯,아이콘,툴바,도구 모음,강조,프로그램,앱,KDE 프로그램,테마,전역 메뉴,메뉴,그놈,프로그램 스타일,앱,프로그램,모양,스킨,테마,밝은 모드,라이트 모드,다크 모드,어두운 모드",
    "X-KDE-Keywords[nl]": "stijl,stijlen,uiterlijk,widget,pictogrammen,werkbalk,tekst,accentuering,apps,KDE-toepassingen,thema,plasma, menu,globaal menu,GTK,GNOME,stijl van toepassing,app,toepassing,programma's,verschijning,uiterlijk,thema's,modus licht,modus donker",
    "X-KDE-Keywords[nn]": "stil,stilar,utsjånad,skjermelement,ikon,verktøylinjer,tekst,framheva,program,KDE-program,tema,plasma,meny,global meny,GTK,GNOME,programstil,app,program,utsjånad,drakter,drakt,tema,lys modus,mørk modus",
    "X-KDE-Keywords[pl]": "style,styl,wygląd,element interfejsu,ikony,paski narzędzi,tekst,podświetlenie,programy,programy KDE,motyw,plazma,menu,globalne menu,GTK,GNOME,wygląd aplikacji,aplikacja,programy,wygląd,skórka,wyglądy,tryb jasny,tryb ciemny",
    "X-KDE-Keywords[pt]": "estilo,estilos,aparência,elemento,ícones,barras de ferramentas,texto,realce,aplicações,aplicações do KDE,tema,plasma,menu,menu global,GTK,GNOME,estilo das aplicações,aplicação,programas,aparência,visual,temas,modo claro,modo escuro",
    "X-KDE-Keywords[pt_BR]": "estilo,estilos,aparência,widget,ícones,barras de ferramentas,texto,realce,aplicativos,aplicativos do KDE,tema,plasma, menu, menu global,GTK,GNOME,estilo do aplicativo,app,aplicativo,programas,aparência,pele,tema,modo escuro,modo claro",
    "X-KDE-Keywords[ru]": "style,styles,look,widget,icons,toolbars,text,highlight,apps,KDE applications,theme,plasma,menu,global menu,GTK,GNOME,application style,app,programs,appearance,skin,themes,light mode,dark mode,стиль,стили,внешний вид,виджет,значки,панель инструментов,текст,подсветка,приложения,приложения KDE,тема,плазма,меню,глобальное меню,стиль,приложение,программы,внешний вид,оформление,темы,светлый режим,тёмный режим",
    "X-KDE-Keywords[sk]": "štýl,štýly,vzhľad,widget,ikony,panely nástrojov,text,zvýraznenie,aplikácie,aplikácie KDE,téma,plasma,ponuka,globálne ponuka,GTK,GNOME,štýl aplikácie,aplikácia,programy,vzhľad,skin,témy,svetlý režim,tmavý režim",
    "X-KDE-Keywords[sl]": "slog,slogi,videz,gradnik,ikone,besedila orodne vrstice,besedilo,osvetljevanje,aplikacije,aplikacije KDE,tema,plasma,meni,globalni meni,GTK,GNOME,slog aplikacija,aplikacije,programi,videz,preobleka,teme,svetli način,temni način",
    "X-KDE-Keywords[sv]": "stil,stilar,utseende,grafisk komponent,ikoner,verktygsrader,text,markering,program,KDE-program,tema,plasma,meny,global meny,GTK,GNOME,programstil,applikation,program, utseende,skal,teman,ljust läge, mörkt läge",
    "X-KDE-Keywords[ta]": "style,styles,look,widget,icons,toolbars,text,highlight,apps,KDE applications,theme,plasma,menu,global menu,GTK,GNOME, application style,app,programs, appearance,skin,themes,light mode,dark mode, பிளாஸ்மா, தோற்றம், தோற்றத்திட்டம், கருவிப்பட்டை,செயலிகள், பொதுவான பட்டி, செயலி, பயன்பாடு, வெளிர்ந்த பயன்முறை, கருமையான பயன்முறை",
    "X-KDE-Keywords[uk]": "style,styles,look,widget,icons,toolbars,text,highlight,apps,KDE applications,theme,plasma,menu,global menu,GTK,GNOME,application style,app,programs,appearance,skin,themes,light mode,dark mode,стиль,стилі,вигляд,віджет,піктограма,піктограми,значок,значки,іконки,панель,панель інструментів,текст,підсвічування,позначення,програма,програми,тема,плазма,меню,загальне меню,жтк,жетека,гном,гноме,стиль програм,програма,застосунок,аплікація,вигляд,оболонка,шкірка,теми,світлий режим,темний режим",
    "X-KDE-Keywords[vi]": "style,styles,look,widget,icons,toolbars,text,highlight,apps,KDE applications,theme,plasma,menu,global menu,GTK,GNOME,application style,app,programs,appearance,skin,themes,light mode,dark mode,kiểu cách,nhìn,phụ kiện,biểu tượng,thanh công cụ,chữ,văn bản,tô sáng,ứng dụng,ứng dụng KDE,chủ đề,trình đơn,trình đơn toàn cục,kiểu cách ứng dụng,chương trình,diện mạo,da,chế độ sáng,chế độ tối",
    "X-KDE-Keywords[x-test]": "xxstylexx,xxstylesxx,xxlookxx,xxwidgetxx,xxiconsxx,xxtoolbarsxx,xxtextxx,xxhighlightxx,xxappsxx,xxKDE applicationsxx,xxthemexx,xxplasmaxx,xxmenuxx,xxglobal menuxx,xxGTKxx,xxGNOMExx,xxapplication stylexx,xxappxx,xxprogramsxx,xxappearancexx,xxskinxx,xxthemesxx,xxlight modexx,xxdark modexx",
    "X-KDE-Keywords[zh_CN]": "style,styles,look,widget,icons,toolbars,text,highlight,apps,KDE applications,theme,plasma,menu,global menu,GTK,GNOME,application style,app,programs,appearance,skin,themes,light mode,dark mode,样式,风格,外观,视觉,视觉效果,视效,小部件,部件,窗口部件,控件,组件,图标,工具栏,文字,文本,高亮,高光,重点显示,应用,应用程序,KDE 应用程序,主题,菜单,全局菜单,应用程序风格,应用程序样式,程序,皮肤,浅色模式,亮色模式,明亮模式,白色模式,深色模式,暗色模式,暗黑模式,黑暗模式,黑色模式",
    "X-KDE-System-Settings-Parent-Category": "appearance",
    "X-KDE-Weight": 0
}
